…
noaa_df <- 
  ny_noaa %>% 
  separate(date, into = c("year", "month", "day"), sep = "-") %>% 
  
  mutate(tmax, tmax = as.integer(tmax) / 10) %>% 
  mutate(tmin, tmin = as.integer(tmin)/ 10) %>%  
  mutate(prcp, pcrp = as.integer(prcp)/ 10)

noaa_df %>% 
  group_by(snow) %>% 
  summarize(count = n())
```

    ## # A tibble: 282 × 2
    ##     snow   count
    ##    <int>   <int>
    ##  1   -13       1
    ##  2     0 2008508
    ##  3     3    8790
    ##  4     5    9748
    ##  5     8    9962
    ##  6    10    5106
    ##  7    13   23095
    ##  8    15    3672
    ##  9    18    3226
    ## 10    20    4797
    ## # ℹ 272 more rows
…
